\relax 
\@writefile{toc}{\contentsline {section}{\numberline {1}Introduction}{1}}
\@writefile{toc}{\contentsline {section}{\numberline {2}Features}{1}}
\@writefile{toc}{\contentsline {section}{\numberline {3}Design and Implementation}{1}}
\@writefile{toc}{\contentsline {subsection}{\numberline {3.1}Server}{1}}
\@writefile{toc}{\contentsline {subsection}{\numberline {3.2}Client}{2}}
\@writefile{toc}{\contentsline {subsection}{\numberline {3.3}Packets}{2}}
\@writefile{toc}{\contentsline {section}{\numberline {4}Experimentation}{2}}
\@writefile{toc}{\contentsline {subsection}{\numberline {4.1}Handshaking}{3}}
\@writefile{toc}{\contentsline {subsection}{\numberline {4.2}Uploading and Downloading}{3}}
\@writefile{toc}{\contentsline {subsection}{\numberline {4.3}Pause/Resume}{3}}
\@writefile{toc}{\contentsline {section}{\numberline {5}Conclusion}{3}}
